{
    "local": {
        ":": "command",
        "H": "help",
        "i": "insert",
        "p": "player",
	":": "command",
        "r": "reload",
        "v": "volume",
	"\u001b":"default"
    },
    "rpc": {
        "\n": "select",
        " ": "select",
        "+": "volumeup",
        "-": "volumedown",
        "I": "info",
        "h": "left",
        "j": "down",
        "k": "up",
        "l": "right",
	"c":"contextmenu",
        "\u007f": "back",
	"\u0008":"back"
    },
    "input_type":"getch",
    "prompt":"DEFAULT"
}
